<?xml version="1.0" encoding="UTF-8"?>
<session version="1.0">
<refactoring comment="Delete resource &apos;AnimeTaste&apos;" deleteContents="true" description="Delete resource &apos;AnimeTaste&apos;" element1="/AnimeTaste" flags="7" id="org.eclipse.ltk.core.refactoring.delete.resources" resources="1" stamp="1381906860242"/>
</session>